C:\Users\exodi\eclipse-workspace\BlackJunitTest\src\BlackjackOvning\Main.java
C:\Users\exodi\eclipse-workspace\BlackJunitTest\src\BlackjackOvning\Suit.java
C:\Users\exodi\eclipse-workspace\BlackJunitTest\src\BlackjackOvning\Card.java
C:\Users\exodi\eclipse-workspace\BlackJunitTest\src\BlackjackOvning\blackjackTester.java
C:\Users\exodi\eclipse-workspace\BlackJunitTest\src\BlackjackOvning\Deck.java
C:\Users\exodi\eclipse-workspace\BlackJunitTest\src\BlackjackOvning\Blackjack.java
C:\Users\exodi\eclipse-workspace\BlackJunitTest\src\BlackjackOvning\Player.java
